Type,Name,Request Count,Failure Count,Median Response Time,Average Response Time,Min Response Time,Max Response Time,Average Content Size,Requests/s,Failures/s,50%,66%,75%,80%,90%,95%,98%,99%,99.9%,99.99%,100%
GET,/api/as2-5httptrigger?min=0&max=3.14159,5403,0,3200.0,3284.1540045157944,786.0583049987326,16466.90806499828,171.0,30.12055514199984,0.0,3200,3800,4000,4100,4800,5200,6200,7200,15000,16000,16000
,Aggregated,5403,0,3200.0,3284.1540045157944,786.0583049987326,16466.90806499828,171.0,30.12055514199984,0.0,3200,3800,4000,4100,4800,5200,6200,7200,15000,16000,16000
